<?xml version="1.0" encoding="UTF-8" standalone="no"?>
<!-- Created with Inkscape (http://www.inkscape.org/) -->

<svg xmlns:dc="http://purl.org/dc/elements/1.1/" xmlns:cc="http://creativecommons.org/ns#" xmlns:rdf="http://www.w3.org/1999/02/22-rdf-syntax-ns#" xmlns:svg="http://www.w3.org/2000/svg" xmlns="http://www.w3.org/2000/svg" xmlns:sodipodi="http://sodipodi.sourceforge.net/DTD/sodipodi-0.dtd" xmlns:inkscape="http://www.inkscape.org/namespaces/inkscape" width="273" height="529.2" id="svg4221" version="1.1" inkscape:version="0.48.4 r9939" sodipodi:docname="I09.svg" inkscape:export-filename="/home/susan/Documents/Valentina/Measurements/Database/images/A1.png" inkscape:export-xdpi="96" inkscape:export-ydpi="96">
  <defs id="defs4223">
    <marker inkscape:stockid="Arrow2Mend" orient="auto" refY="0" refX="0" id="marker18919" style="overflow:visible">
      <path id="path18921" style="fill-rule:evenodd;stroke-width:0.625;stroke-linejoin:round" d="M 8.719,4.034 L -2.207,0.016 L 8.719,-4.002 c -1.746,2.372 -1.736,5.618 0,8.036 z" transform="scale(-0.6,-0.6)" inkscape:connector-curvature="0" />
    </marker>
  </defs>
  <sodipodi:namedview id="base" pagecolor="#ffffff" bordercolor="#666666" borderopacity="1.0" inkscape:pageopacity="0.0" inkscape:pageshadow="2" inkscape:zoom="1.674" inkscape:cx="-147.8" inkscape:cy="264.6" inkscape:document-units="px" inkscape:current-layer="layer2" showgrid="false" fit-margin-top="0" fit-margin-left="0" fit-margin-bottom="0" fit-margin-right="0" units="px" borderlayer="true" />
  <metadata id="metadata4226">
    <rdf:RDF>
      <cc:Work rdf:about="">
        <dc:format>image/svg+xml</dc:format>
        <dc:type rdf:resource="http://purl.org/dc/dcmitype/StillImage" />
        <dc:title></dc:title>
      </cc:Work>
    </rdf:RDF>
  </metadata>
  <g inkscape:groupmode="layer" id="layer2" inkscape:label="Base" transform="translate(33.71,-15.29)">
    <rect style="color:#000000;fill:#ffffff;fill-opacity:1;fill-rule:nonzero;stroke:none;stroke-width:2;marker:none;visibility:visible;display:inline;overflow:visible;enable-background:accumulate" id="rect4916" width="273" height="529.2" x="-33.71" y="15.29" />
    <g transform="translate(-440.9,-3578)" style="display:inline" id="g7620-6">
      <path style="fill:none;stroke:#dba981;stroke-width:5.3658;stroke-linecap:round;stroke-linejoin:round;stroke-miterlimit:4;stroke-opacity:1;stroke-dasharray:none" d="m 563.9,3985 c -1,-20 0.6,-34 5.6,-54 c 3,-16 9,-27 17,-43 c 3,-8 9,-16 9,-24 c 2,-19 -8,-37 -11,-57 c -4,-20 -6,-33 -11.5,-52 c -6.5,24 -20.5,51 -36.5,78 c 0,0 -1,10 -4,26 c -4,18 -29,83 -29,83 c 0,0 -5,13 -3.5,19 c 0.5,1 0.5,6 0.5,6 l 6,8 l 2,13 c 1,6 7,11 14,17 c 0,0 0,3 -1,4 c -2,1 -15,-5 -15,-5 c -5,-3 -4,-3 -6,-4 c -1,9 -1,14 -3,27 l -5,21 c -3,4 -6,7 -10,7 c -5,1 -8,-8 -10,-14 c -3,-4 -4,-6 -6,-10 c -2,-9 1,-26 1,-26 l -1,-12 l 2,-17 l 2,-9 c 5,-8 3,-8 5,-11 c 0,0 2,-29 3,-43 c 1,-12 3,-23 5,-34 c 1,-11 0,-22 2,-33 c 2,-8 17,-31 20,-40 c 8,-26 22,-70 40,-102 c 5,-8 15,-18 24,-24 c 17.6,-9 40,-10 52,-20" id="path8665-0" inkscape:connector-curvature="0" />
      <path style="fill:none;stroke:#dba981;stroke-width:2;stroke-linecap:round;stroke-linejoin:miter;stroke-miterlimit:4;stroke-opacity:1;stroke-dasharray:6, 2;stroke-dashoffset:0" d="m 575.1,3757 c 5,-19 3.5,-68 -0.5,-77" id="path3992-4-4-7-0-0-4-6-8-0-0-0" inkscape:connector-curvature="0" sodipodi:nodetypes="cc" />
      <path sodipodi:nodetypes="cc" inkscape:connector-curvature="0" id="path5925-1-0-54-3" d="m 497.6,3962 c -6.8,3 -22.6,-3 -23,-6" style="fill:none;stroke:#dba981;stroke-width:2;stroke-linecap:round;stroke-linejoin:miter;stroke-miterlimit:4;stroke-opacity:1;stroke-dasharray:6, 2;stroke-dashoffset:0" />
      <path style="fill:none;stroke:#000000;stroke-width:2.6829;stroke-linecap:round;stroke-linejoin:miter;stroke-miterlimit:4;stroke-opacity:1;stroke-dasharray:none;marker-start:none;marker-end:none" d="m 573.7,3759 c -8.8,31 -20.4,59 -28.2,76" id="path7494-1-6-3-5-7-8-5-0-0-0-3-1-8-2-25" inkscape:connector-curvature="0" sodipodi:nodetypes="cc" />
    </g>
  </g>
  <g inkscape:label="Graphics" inkscape:groupmode="layer" id="layer1" transform="translate(52.1,-451.5)" style="display:inline" />
</svg>
