<?xml version="1.0" encoding="UTF-8" standalone="no"?>
<!-- Created with Inkscape (http://www.inkscape.org/) -->

<svg xmlns:dc="http://purl.org/dc/elements/1.1/" xmlns:cc="http://creativecommons.org/ns#" xmlns:rdf="http://www.w3.org/1999/02/22-rdf-syntax-ns#" xmlns:svg="http://www.w3.org/2000/svg" xmlns="http://www.w3.org/2000/svg" xmlns:sodipodi="http://sodipodi.sourceforge.net/DTD/sodipodi-0.dtd" xmlns:inkscape="http://www.inkscape.org/namespaces/inkscape" width="273" height="529.2" id="svg4221" version="1.1" inkscape:version="0.48.4 r9939" sodipodi:docname="arm_neck_back_to_wrist.svg" inkscape:export-filename="/home/susan/Documents/Valentina/Measurements/Database/images/A1.png" inkscape:export-xdpi="96" inkscape:export-ydpi="96">
  <defs id="defs4223">
    <marker inkscape:stockid="Arrow2Mend" orient="auto" refY="0" refX="0" id="marker18919" style="overflow:visible">
      <path id="path18921" style="fill-rule:evenodd;stroke-width:0.625;stroke-linejoin:round" d="M 8.719,4.034 L -2.207,0.016 L 8.719,-4.002 c -1.746,2.372 -1.736,5.618 0,8.036 z" transform="scale(-0.6,-0.6)" inkscape:connector-curvature="0" />
    </marker>
    <marker inkscape:stockid="Arrow2Mend" orient="auto" refY="0" refX="0" id="marker5153" style="overflow:visible">
      <path id="path5155" style="fill-rule:evenodd;stroke-width:0.625;stroke-linejoin:round" d="M 8.719,4.034 L -2.207,0.016 L 8.719,-4.002 c -1.746,2.372 -1.736,5.618 0,8.036 z" transform="scale(-0.6,-0.6)" inkscape:connector-curvature="0" />
    </marker>
    <marker inkscape:stockid="Arrow2Mend" orient="auto" refY="0" refX="0" id="marker17459" style="overflow:visible">
      <path id="path17461" style="fill-rule:evenodd;stroke-width:0.625;stroke-linejoin:round" d="M 8.719,4.034 L -2.207,0.016 L 8.719,-4.002 c -1.746,2.372 -1.736,5.618 0,8.036 z" transform="scale(-0.6,-0.6)" inkscape:connector-curvature="0" />
    </marker>
    <marker inkscape:stockid="Arrow2Mend" orient="auto" refY="0" refX="0" id="marker8958" style="overflow:visible">
      <path id="path8960" style="fill-rule:evenodd;stroke-width:0.625;stroke-linejoin:round" d="M 8.719,4.034 L -2.207,0.016 L 8.719,-4.002 c -1.746,2.372 -1.736,5.618 0,8.036 z" transform="scale(-0.6,-0.6)" inkscape:connector-curvature="0" />
    </marker>
    <marker inkscape:stockid="Arrow2Mend" orient="auto" refY="0" refX="0" id="marker18919-6" style="overflow:visible">
      <path id="path18921-1" style="fill-rule:evenodd;stroke-width:0.625;stroke-linejoin:round" d="M 8.719,4.034 L -2.207,0.016 L 8.719,-4.002 c -1.746,2.372 -1.736,5.618 0,8.036 z" transform="scale(-0.6,-0.6)" inkscape:connector-curvature="0" />
    </marker>
    <marker inkscape:stockid="Arrow2Mend" orient="auto" refY="0" refX="0" id="marker18919-0" style="overflow:visible">
      <path id="path18921-2" style="fill-rule:evenodd;stroke-width:0.625;stroke-linejoin:round" d="M 8.719,4.034 L -2.207,0.016 L 8.719,-4.002 c -1.746,2.372 -1.736,5.618 0,8.036 z" transform="scale(-0.6,-0.6)" inkscape:connector-curvature="0" />
    </marker>
  </defs>
  <sodipodi:namedview id="base" pagecolor="#ffffff" bordercolor="#666666" borderopacity="1.0" inkscape:pageopacity="0.0" inkscape:pageshadow="2" inkscape:zoom="1.674" inkscape:cx="68.1" inkscape:cy="294.6" inkscape:document-units="px" inkscape:current-layer="layer1" showgrid="false" fit-margin-top="0" fit-margin-left="0" fit-margin-bottom="0" fit-margin-right="0" units="px" borderlayer="true" />
  <metadata id="metadata4226">
    <rdf:RDF>
      <cc:Work rdf:about="">
        <dc:format>image/svg+xml</dc:format>
        <dc:type rdf:resource="http://purl.org/dc/dcmitype/StillImage" />
        <dc:title></dc:title>
      </cc:Work>
    </rdf:RDF>
  </metadata>
  <g inkscape:groupmode="layer" id="layer2" inkscape:label="Base" transform="translate(67.17,-15.29)">
    <rect style="color:#000000;fill:#ffffff;fill-opacity:1;fill-rule:nonzero;stroke:none;stroke-width:2;marker:none;visibility:visible;display:inline;overflow:visible;enable-background:accumulate" id="rect4916" width="273" height="529.2" x="-67.17" y="15.29" />
  </g>
  <g inkscape:label="Graphics" inkscape:groupmode="layer" id="layer1" transform="translate(85.56,-451.5)" style="display:inline">
    <g style="display:inline" id="g7573" transform="matrix(0.6397,0,0,0.6397,-315,-3118)">
      <path sodipodi:nodetypes="cc" inkscape:connector-curvature="0" id="path3992-4-4-7-0-0-9-6-8-6-55" d="m 573.2,6002 c -5,-19 0.9,-66 5.9,-75" style="fill:none;stroke:#dba981;stroke-width:2;stroke-linecap:round;stroke-linejoin:miter;stroke-miterlimit:4;stroke-opacity:1;stroke-dasharray:6, 2;stroke-dashoffset:0" />
      <path id="path9709-0" style="fill:none;stroke:#dba981;stroke-width:3.714;stroke-linecap:round;stroke-linejoin:round;stroke-miterlimit:4;stroke-opacity:1;stroke-dasharray:none" d="m 571.1,5911 c 0,0 -4,-5 -30,-10 c -5,-1 -17,-6 -15,-11 c 3,-5 31,-9 36,-9 c 9,0 12,-1 18,1 c 7,1 12,5 18,8 c 5,2 9,4 13,6 c 10,5 22,12 31,13 c 0,0 54,8 76,23 c 10,7 16,10 16,10 c 0,0 13,4 11,10 c -3,14 -11,27 -22,29 c -16,4 -38,11 -54,11 c -32,4 -51,8 -96,9 c -5,36 -24,78 -23,109 m 21,-198 c -3,0 -19,-3 -20,1 m -102.6,-8 c -12,10 -34.4,11 -52,20 m 295.6,22 c -29,-8 -88,-23 -113,-23 c -22,-11 -40,-6 -55,-18 c -3,-3 -5,-8 -6,-13 c 0,-5 1,-15 1,-15 c 0,0 -22,1 -33,1 c -11,0 -32.6,-2 -32.6,-2 c 0,0 3.1,11 2,16 c -0.9,5 -3.5,9 -7,12" inkscape:connector-curvature="0" />
      <path style="fill:none;stroke:#000000;stroke-width:2.683;stroke-linecap:round;stroke-linejoin:round;stroke-miterlimit:4;stroke-opacity:1;stroke-dasharray:none;marker-start:url(#marker7359);marker-end:url(#marker7359)" d="m 489.1,5906 c 9,1 59,14 89,20 c 56,11 172,43 170,27 c -13,-21 -43,-32 -69,-40 c -19,-6 -36,-9 -55,-15" id="path9729-0" inkscape:connector-curvature="0" sodipodi:nodetypes="cacsc" />
    </g>
  </g>
</svg>
