<?xml version="1.0" encoding="UTF-8" standalone="no"?>
<!-- Created with Inkscape (http://www.inkscape.org/) -->

<svg xmlns:dc="http://purl.org/dc/elements/1.1/" xmlns:cc="http://creativecommons.org/ns#" xmlns:rdf="http://www.w3.org/1999/02/22-rdf-syntax-ns#" xmlns:svg="http://www.w3.org/2000/svg" xmlns="http://www.w3.org/2000/svg" xmlns:sodipodi="http://sodipodi.sourceforge.net/DTD/sodipodi-0.dtd" xmlns:inkscape="http://www.inkscape.org/namespaces/inkscape" width="273" height="529.2" id="svg4221" version="1.1" inkscape:version="0.48.4 r9939" sodipodi:docname="I02.svg" inkscape:export-filename="/home/susan/Documents/Valentina/Measurements/Database/images/A1.png" inkscape:export-xdpi="96" inkscape:export-ydpi="96">
  <defs id="defs4223">
    <marker inkscape:stockid="Arrow2Mend" orient="auto" refY="0" refX="0" id="marker18919" style="overflow:visible">
      <path id="path18921" style="fill-rule:evenodd;stroke-width:0.625;stroke-linejoin:round" d="M 8.719,4.034 L -2.207,0.016 L 8.719,-4.002 c -1.746,2.372 -1.736,5.618 0,8.036 z" transform="scale(-0.6,-0.6)" inkscape:connector-curvature="0" />
    </marker>
  </defs>
  <sodipodi:namedview id="base" pagecolor="#ffffff" bordercolor="#666666" borderopacity="1.0" inkscape:pageopacity="0.0" inkscape:pageshadow="2" inkscape:zoom="1.674" inkscape:cx="65.41" inkscape:cy="264.6" inkscape:document-units="px" inkscape:current-layer="layer2" showgrid="false" fit-margin-top="0" fit-margin-left="0" fit-margin-bottom="0" fit-margin-right="0" units="px" borderlayer="true" />
  <metadata id="metadata4226">
    <rdf:RDF>
      <cc:Work rdf:about="">
        <dc:format>image/svg+xml</dc:format>
        <dc:type rdf:resource="http://purl.org/dc/dcmitype/StillImage" />
        <dc:title />
      </cc:Work>
    </rdf:RDF>
  </metadata>
  <g inkscape:groupmode="layer" id="layer2" inkscape:label="Base" transform="translate(33.71,-15.29)">
    <rect style="color:#000000;fill:#ffffff;fill-opacity:1;fill-rule:nonzero;stroke:none;stroke-width:2;marker:none;visibility:visible;display:inline;overflow:visible;enable-background:accumulate" id="rect4916" width="273" height="529.2" x="-33.71" y="15.29" />
    <g transform="translate(-209.6,-3576)" style="display:inline" id="g11608">
      <path sodipodi:nodetypes="ccccc" inkscape:connector-curvature="0" id="path8179" d="m 344.5,3940 c 3,-16 12,-36 20,-52 c 3,-8 9,-16 9,-24 c 2,-19 -8,-37 -11,-57 c -4,-20 -6,-33 -11.5,-52" style="fill:none;stroke:#dba981;stroke-width:5.3658;stroke-linecap:round;stroke-linejoin:round;stroke-miterlimit:4;stroke-opacity:1;stroke-dasharray:none" />
      <path id="path8160" d="m 351.1,3756 c -11.1,22 -44.4,45 -65.3,68" style="fill:none;stroke:#dba981;stroke-width:5.3656;stroke-linecap:round;stroke-linejoin:round;stroke-miterlimit:4;stroke-opacity:1;stroke-dasharray:none" inkscape:connector-curvature="0" sodipodi:nodetypes="cc" />
      <path inkscape:connector-curvature="0" id="path8154" d="m 347.5,3680 c 17.2,-10 40,-10 52,-20" style="fill:none;stroke:#dba981;stroke-width:5.3658;stroke-linecap:round;stroke-linejoin:round;stroke-miterlimit:4;stroke-opacity:1;stroke-dasharray:none" />
      <path style="fill:none;stroke:#dba981;stroke-width:2;stroke-linecap:round;stroke-linejoin:miter;stroke-miterlimit:4;stroke-opacity:1;stroke-dasharray:6, 2;stroke-dashoffset:0" d="m 353,3757 c 5,-19 3.5,-68 -0.5,-77" id="path3992-4-4-7-0-0-4-6-8-0-9" inkscape:connector-curvature="0" sodipodi:nodetypes="cc" />
      <path style="fill:none;stroke:#dba981;stroke-width:5.3658;stroke-linecap:round;stroke-linejoin:round;stroke-miterlimit:4;stroke-opacity:1;stroke-dasharray:none" d="m 286.7,3825 c 0,0 6.2,7 15.2,21 c 9.8,16 37.3,80 37.3,80 c 0,0 5.1,15 8.9,22 l 4.5,9 c 0.7,1 2.9,5 2.9,5 l 6.8,7 l 3.7,14 c -0.1,4 0.3,4 0.8,9 c 0,0 -0.6,15 -2.5,16 c -1.4,0 -4.1,-1 -4.1,-1 c -2.1,-9 -1.8,-15 -3.1,-19 c 0.1,12 2.8,21 2.2,34 l -2.5,21 c -2.5,5 -5.1,8 -9.1,8 c -4.8,2 -8.9,-7 -11.5,-12 c -3.4,-4 -4.7,-6 -7.1,-10 c -3.1,-8 -0.8,-17 -2.1,-26 c -0.5,-4 -1.9,-7 -2.3,-11 c -0.5,-6 -1.1,-12 0,-17 c 0.5,-3 2.5,-7 2.5,-7 c 1.5,-5 1.6,-5 0.6,-12 c 0,0 -17.7,-23 -26.8,-34 c -7.7,-9 -13.9,-18 -20.2,-28 c -6.9,-8 -15.7,-15 -21.6,-25 c -8.4,-13 -18.3,-35 -18.5,-43 c 0,-5 17.5,-30 19.9,-34 c 12.9,-24 35.2,-64 59,-92 c 6.4,-7 18,-16 28.2,-19" id="path8189" inkscape:connector-curvature="0" sodipodi:nodetypes="cccccccccccccccccaaaccccccccc" />
      <path sodipodi:nodetypes="cc" inkscape:connector-curvature="0" id="path5925-1-0-5" d="m 348.8,3944 c -2.7,7 -18.2,14 -20.6,12" style="fill:none;stroke:#dba981;stroke-width:2;stroke-linecap:round;stroke-linejoin:miter;stroke-miterlimit:4;stroke-opacity:1;stroke-dasharray:6, 2;stroke-dashoffset:0" />
      <path style="fill:none;stroke:#000000;stroke-width:2.683;stroke-linecap:round;stroke-linejoin:miter;stroke-miterlimit:4;stroke-opacity:1;stroke-dasharray:none;marker-start:url(#marker7359);marker-end:url(#marker7359)" d="m 352.8,3673 c -2.8,1 -17.6,8 -24.6,15 c -39.8,37 -76.9,95 -93.2,134" id="path7494-1-6-3-5-7-8-5-0-3-8-3-84-9-5-9-3-4-3" inkscape:connector-curvature="0" sodipodi:nodetypes="cac" />
    </g>
  </g>
  <g inkscape:label="Graphics" inkscape:groupmode="layer" id="layer1" transform="translate(52.1,-451.5)" style="display:inline" />
</svg>
