<?xml version="1.0" encoding="UTF-8" standalone="no"?>
<!-- Created with Inkscape (http://www.inkscape.org/) -->

<svg xmlns:dc="http://purl.org/dc/elements/1.1/" xmlns:cc="http://creativecommons.org/ns#" xmlns:rdf="http://www.w3.org/1999/02/22-rdf-syntax-ns#" xmlns:svg="http://www.w3.org/2000/svg" xmlns="http://www.w3.org/2000/svg" xmlns:sodipodi="http://sodipodi.sourceforge.net/DTD/sodipodi-0.dtd" xmlns:inkscape="http://www.inkscape.org/namespaces/inkscape" width="273" height="529.2" id="svg4221" version="1.1" inkscape:version="0.48.4 r9939" sodipodi:docname="arm_shoulder_tip_to_armfold_line.svg" inkscape:export-filename="/home/susan/Documents/Valentina/Measurements/Database/images/A1.png" inkscape:export-xdpi="96" inkscape:export-ydpi="96">
  <defs id="defs4223">
    <marker inkscape:stockid="Arrow2Mend" orient="auto" refY="0" refX="0" id="marker18919" style="overflow:visible">
      <path id="path18921" style="fill-rule:evenodd;stroke-width:0.625;stroke-linejoin:round" d="M 8.719,4.034 L -2.207,0.016 L 8.719,-4.002 c -1.746,2.372 -1.736,5.618 0,8.036 z" transform="scale(-0.6,-0.6)" inkscape:connector-curvature="0" />
    </marker>
  </defs>
  <sodipodi:namedview id="base" pagecolor="#ffffff" bordercolor="#666666" borderopacity="1.0" inkscape:pageopacity="0.0" inkscape:pageshadow="2" inkscape:zoom="4.693" inkscape:cx="53.32" inkscape:cy="371" inkscape:document-units="px" inkscape:current-layer="layer1" showgrid="false" fit-margin-top="0" fit-margin-left="0" fit-margin-bottom="0" fit-margin-right="0" units="px" borderlayer="true" />
  <metadata id="metadata4226">
    <rdf:RDF>
      <cc:Work rdf:about="">
        <dc:format>image/svg+xml</dc:format>
        <dc:type rdf:resource="http://purl.org/dc/dcmitype/StillImage" />
        <dc:title />
      </cc:Work>
    </rdf:RDF>
  </metadata>
  <g inkscape:groupmode="layer" id="layer2" inkscape:label="Base" transform="translate(33.71,-15.29)" sodipodi:insensitive="true">
    <rect style="color:#000000;fill:#ffffff;fill-opacity:1;fill-rule:nonzero;stroke:none;stroke-width:2;marker:none;visibility:visible;display:inline;overflow:visible;enable-background:accumulate" id="rect4916" width="273" height="529.2" x="-33.71" y="15.29" />
  </g>
  <g inkscape:label="Graphics" inkscape:groupmode="layer" id="layer1" transform="translate(52.1,-451.5)" style="display:inline">
    <g transform="translate(-18.39,436.2)" id="g8898">
      <path style="fill:none;stroke:#dba981;stroke-width:3.5;stroke-linecap:round;stroke-linejoin:round;stroke-miterlimit:4;stroke-opacity:1;stroke-dasharray:none" d="m 123,407 c -1,-20 0.6,-34 5.6,-54 c 3,-16 9,-27 17,-43 c 3,-8 9,-16 9,-24 c 2,-19 -8,-37 -11,-57 c -4,-20 -6,-33 -11.5,-52 c -6.5,24 -20.5,51 -36.5,78 c 0,0 -1,10 -4,26 c -4,18 -29,83 -29,83 c -3.86,10.6 -3.12,15 -3,25 l 6,8 l 2,13 c 1,6 7,11 14,17 c -0.58,8.4 -10.51,1.5 -16,-1 c -5,-3 -4,-3 -6,-4 c -1,9 -1,14 -3,27 c -2.24,9 -3.62,27.7 -15,28 c -5.72,-0.9 -13.63,-19.3 -16,-24 c -2,-9 1,-26 1,-26 c -1.79,-9.8 -0.15,-19.3 1,-29 c 1.29,-6.7 4.59,-16.3 7,-20 c 0,0 2,-29 3,-43 c 1,-12 3,-23 5,-34 c 1,-11 -0.86,-22.4 2,-33 c 3.86,-14.4 17,-31 20,-40 c 8,-26 22,-70 40,-102 c 5,-8 15,-18 24,-24 c 17.6,-9 40,-10 52,-20" id="path8665-5-1" inkscape:connector-curvature="0" sodipodi:nodetypes="cccccccccccccccccccccccacccc" />
      <path style="fill:none;stroke:#dba981;stroke-width:2;stroke-linecap:round;stroke-linejoin:miter;stroke-miterlimit:4;stroke-opacity:1;stroke-dasharray:6, 2;stroke-dashoffset:0" d="m 134.2,179 c 5,-19 3.5,-68 -0.5,-77" id="path3992-4-4-7-0-0-4-6-8-0-1-0" inkscape:connector-curvature="0" sodipodi:nodetypes="cc" />
      <path style="fill:none;stroke:#000000;stroke-width:2.5;stroke-linecap:round;stroke-linejoin:miter;stroke-miterlimit:4;stroke-opacity:1;stroke-dasharray:none;marker-start:none;marker-end:none" d="m 131.9,97 c -16.8,7.9 -29.6,19.8 -44.37,55.6" id="path7494-1-6-3-5-7-8-5-0-0-4-2-2-9-27-9-5" inkscape:connector-curvature="0" sodipodi:nodetypes="cc" />
      <path style="fill:none;stroke:#dba981;stroke-width:2;stroke-linecap:round;stroke-linejoin:round;stroke-miterlimit:4;stroke-opacity:1;stroke-dasharray:4, 2;stroke-dashoffset:0;marker-start:none;marker-end:none" d="m 130.4,181.8 c -16.5,7.6 -42.08,-13.2 -40.73,-25" id="path7494-1-6-3-5-7-8-5-0-0-4-2-2-9-1-1" inkscape:connector-curvature="0" sodipodi:nodetypes="cc" />
    </g>
  </g>
</svg>
