<?xml version="1.0" encoding="UTF-8" standalone="no"?>
<!-- Created with Inkscape (http://www.inkscape.org/) -->

<svg xmlns:dc="http://purl.org/dc/elements/1.1/" xmlns:cc="http://creativecommons.org/ns#" xmlns:rdf="http://www.w3.org/1999/02/22-rdf-syntax-ns#" xmlns:svg="http://www.w3.org/2000/svg" xmlns="http://www.w3.org/2000/svg" xmlns:sodipodi="http://sodipodi.sourceforge.net/DTD/sodipodi-0.dtd" xmlns:inkscape="http://www.inkscape.org/namespaces/inkscape" width="405" height="531.2" id="svg10623" version="1.1" inkscape:version="0.48.4 r9939" sodipodi:docname="C02.svg">
  <defs id="defs10625">
    <marker inkscape:stockid="Arrow2Mend" orient="auto" refY="0" refX="0" id="Arrow2Mend" style="overflow:visible">
      <path id="path8911" style="fill-rule:evenodd;stroke-width:0.625;stroke-linejoin:round" d="M 8.719,4.034 L -2.207,0.016 L 8.719,-4.002 c -1.746,2.372 -1.736,5.618 0,8.036 z" transform="scale(-0.6,-0.6)" inkscape:connector-curvature="0" />
    </marker>
    <marker inkscape:stockid="Arrow2Mend" orient="auto" refY="0" refX="0" id="marker6045" style="overflow:visible">
      <path id="path6047" style="fill-rule:evenodd;stroke-width:0.625;stroke-linejoin:round" d="M 8.719,4.034 L -2.207,0.016 L 8.719,-4.002 c -1.746,2.372 -1.736,5.618 0,8.036 z" transform="scale(-0.6,-0.6)" inkscape:connector-curvature="0" />
    </marker>
  </defs>
  <sodipodi:namedview id="base" pagecolor="#ffffff" bordercolor="#666666" borderopacity="1.0" inkscape:pageopacity="0.0" inkscape:pageshadow="2" inkscape:zoom="1.668" inkscape:cx="193.9" inkscape:cy="243.4" inkscape:document-units="px" inkscape:current-layer="layer3" showgrid="false" fit-margin-top="0" fit-margin-left="0" fit-margin-right="0" fit-margin-bottom="0" showguides="true" inkscape:guide-bbox="true" borderlayer="true" />
  <metadata id="metadata10628">
    <rdf:RDF>
      <cc:Work rdf:about="">
        <dc:format>image/svg+xml</dc:format>
        <dc:type rdf:resource="http://purl.org/dc/dcmitype/StillImage" />
        <dc:title />
      </cc:Work>
    </rdf:RDF>
  </metadata>
  <g inkscape:label="Base" inkscape:groupmode="layer" id="layer1" transform="translate(157.9,322.2)">
    <rect style="color:#000000;fill:#ffffff;fill-opacity:1;fill-rule:nonzero;stroke:none;stroke-width:3;marker:none;visibility:visible;display:inline;overflow:visible;enable-background:accumulate" id="rect3088" width="405" height="531.2" x="-157.9" y="-322.2" />
  </g>
  <g inkscape:groupmode="layer" id="layer3" inkscape:label="Graphics">
    <g id="g19358" transform="matrix(0.5391,0,0,0.5391,-914,-3328)">
      <path sodipodi:nodetypes="cc" inkscape:connector-curvature="0" id="path7494-1-6-3-5-8-3-9-5-7-2-4-5-7" d="m 2117,6730 l 9,-364" style="fill:none;stroke:#dba981;stroke-width:3.108;stroke-linecap:butt;stroke-linejoin:miter;stroke-miterlimit:4;stroke-opacity:1;stroke-dasharray:9.324, 3.108;stroke-dashoffset:0;marker-start:url(#marker7359);marker-end:url(#marker7359)" />
      <path style="fill:none;stroke:#000000;stroke-width:5;stroke-linecap:butt;stroke-linejoin:miter;stroke-miterlimit:4;stroke-opacity:1;stroke-dasharray:none;stroke-dashoffset:0" d="m 2099,6571 l 24,0" id="path3833-4-0-8-2-6-6-9-6-7-1-6-5" inkscape:connector-curvature="0" sodipodi:nodetypes="cc" />
      <path sodipodi:nodetypes="cac" inkscape:connector-curvature="0" id="path3992-4-65-7-0-2-8" d="m 2033,6375 c 13,3 18,-1 26,-5 c 10,-4 19,-16 26,-18" style="fill:none;stroke:#dba981;stroke-width:2;stroke-linecap:round;stroke-linejoin:round;stroke-miterlimit:4;stroke-opacity:1;stroke-dasharray:4, 2;stroke-dashoffset:0" />
      <path id="path6025-2-9-9" d="m 2097,7064 c 0,6 4,16 1,20 c -3,4 -16,3 -24,5 c -5,1 -10,3 -15,4 c -13,2 -25,3 -38,3 c -7,0 -13,0 -20,-1 c -7,0 -19,5 -22,-4 c -1,-6 9,-6 13,-8 c 12,-8 25,-15 38,-22 c 6,-4 15,-6 18,-12 c 6,-15 5,-33 4,-46 c -3,-22 -9,-69 -11,-105 c 1,-10 -1,-7 -10,-35 c -6,-16 -18,-62 -22,-78 c -10,-35 -1,-84 -4,-119 c -11,-27 -3,-29 -5,-72 c 0,-20 -7,-47 -7,-64 c 0,-8 2,-16 2,-24 c 0,-11 -2,-27 -5,-34 c -3,-7 4,-24 7,-32 c 3,-5 22,-42 36,-64 c -1,-6 -6,-20 -10,-24 c -6,-6 -16,-1 -23,-3 c -3,-1 -6,-2 -7,-4 c -1,-2 -1,-7 -1,-10 c 0,-1 1,-3 0,-4 c 0,-1 -2,-2 -2,-3 c 0,-1 2,-2 2,-4 c 0,-1 -2,-1 -2,-2 c 0,-2 2,-5 1,-7 c -1,-2 -5,-2 -7,-4 c -5,-3 9,-18 10,-21 c 1,-3 2,-6 2,-9 c 1,-6 1,-13 4,-19 c 2,-5 5,-8 8,-12 c 2,-1 3,-2 4,-3 c 8,-5 17,-10 26,-11 c 12,-3 26,-3 38,1 c 10,4 19,10 25,18 c 15,31 -5,52 -19,73 c -4,9 2,23 7,30 c 8,15 27,34 32,58 c 7,20 -3,46 -6,70 c -3,21 -8,50 -11,63 c -3,11 -6,13 -5,24 c 1,12 5,26 9,37 c 10,24 11,41 7,61 c -4,20 -14,25 -14,25 l -3,39 c 0,0 -5,50 -8,75 c -2,15 -8,27 -6,44 c 1,6 12,36 13,41 c 3,16 5,27 6,43 c 3,38 -13,77 -9,115 c 0,4 3,5 3,11 z" style="fill:none;stroke:#dba981;stroke-width:5.3658;stroke-linecap:round;stroke-linejoin:miter;stroke-miterlimit:4;stroke-opacity:1;stroke-dasharray:none" inkscape:connector-curvature="0" sodipodi:nodetypes="ssaaaacacccccscccassccasscccccccsscscsccccacsssccacccas" />
      <path sodipodi:nodetypes="ssscs" inkscape:connector-curvature="0" id="path3009-6-3-6-2-4-8" d="m 2044,6414 c -1,42 6,57 21,58 c 17,1 22,-20 20,-49 c 0,-7 1,-27 -18,-25 c -15,1 -23,6 -23,16 z" style="fill:none;stroke:#dba981;stroke-width:5.3658;stroke-linecap:round;stroke-linejoin:miter;stroke-miterlimit:4;stroke-opacity:1;stroke-dasharray:none" />
      <path sodipodi:nodetypes="cc" inkscape:connector-curvature="0" id="path3992-4-9-7-2-6-4-7" d="m 2062,6369 c 1,5 -1,10 2,25" style="fill:none;stroke:#dba981;stroke-width:2;stroke-linecap:round;stroke-linejoin:round;stroke-miterlimit:4;stroke-opacity:1;stroke-dasharray:4, 2;stroke-dashoffset:0" />
      <path style="fill:none;stroke:#dba981;stroke-width:1.8826;stroke-linecap:round;stroke-linejoin:miter;stroke-miterlimit:4;stroke-opacity:1;stroke-dasharray:5.6478, 1.8826;stroke-dashoffset:0" d="m 1996,6571 l 103,0" id="path3992-4-77-9-5-7-1-2-9-8-8-6-2-3-8-7" inkscape:connector-curvature="0" sodipodi:nodetypes="cc" />
      <path style="fill:none;stroke:#dba981;stroke-width:1.8826;stroke-linecap:round;stroke-linejoin:miter;stroke-miterlimit:4;stroke-opacity:1;stroke-dasharray:5.6478, 1.8826;stroke-dashoffset:0" d="m 2000,6596 l 101,0" id="path3992-4-77-9-5-7-1-2-9-8-8-6-2-3-8-7-3" inkscape:connector-curvature="0" sodipodi:nodetypes="cc" />
      <path style="fill:none;stroke:#dba981;stroke-width:1.8826;stroke-linecap:round;stroke-linejoin:miter;stroke-miterlimit:4;stroke-opacity:1;stroke-dasharray:5.6478, 1.8826;stroke-dashoffset:0" d="m 1993,6474 l 123,0" id="path3992-4-77-9-5-7-1-2-9-8-8-6-2-3-8-7-8" inkscape:connector-curvature="0" sodipodi:nodetypes="cc" />
    </g>
    <g id="g7098-3-3" transform="translate(-804,-382.5)" style="stroke-linecap:round">
      <text sodipodi:linespacing="125%" id="text7318-9-3" y="163.88844" x="654.50916" style="font-size:18px;font-style:normal;font-variant:normal;font-weight:normal;font-stretch:normal;text-align:start;line-height:125%;letter-spacing:0px;word-spacing:0px;writing-mode:lr-tb;text-anchor:start;fill:#000000;fill-opacity:1;stroke:none;font-family:Standard Symbols L;-inkscape-font-specification:Standard Symbols L" xml:space="preserve"><tspan style="font-size:24px" y="163.88844" x="654.50916" sodipodi:role="line" id="tspan9819-6-0" /></text>
    </g>
  </g>
</svg>
