<?xml version="1.0" encoding="UTF-8" standalone="no"?>
<!-- Created with Inkscape (http://www.inkscape.org/) -->

<svg xmlns:dc="http://purl.org/dc/elements/1.1/" xmlns:cc="http://creativecommons.org/ns#" xmlns:rdf="http://www.w3.org/1999/02/22-rdf-syntax-ns#" xmlns:svg="http://www.w3.org/2000/svg" xmlns="http://www.w3.org/2000/svg" xmlns:sodipodi="http://sodipodi.sourceforge.net/DTD/sodipodi-0.dtd" xmlns:inkscape="http://www.inkscape.org/namespaces/inkscape" width="273" height="529.2" id="svg4221" version="1.1" inkscape:version="0.48.4 r9939" sodipodi:docname="J03.svg" inkscape:export-filename="/home/susan/Documents/Valentina/Measurements/Database/images/A1.png" inkscape:export-xdpi="96" inkscape:export-ydpi="96">
  <defs id="defs4223">
    <marker inkscape:stockid="Arrow2Mend" orient="auto" refY="0" refX="0" id="marker18919" style="overflow:visible">
      <path id="path18921" style="fill-rule:evenodd;stroke-width:0.625;stroke-linejoin:round" d="M 8.719,4.034 L -2.207,0.016 L 8.719,-4.002 c -1.746,2.372 -1.736,5.618 0,8.036 z" transform="scale(-0.6,-0.6)" inkscape:connector-curvature="0" />
    </marker>
  </defs>
  <sodipodi:namedview id="base" pagecolor="#ffffff" bordercolor="#666666" borderopacity="1.0" inkscape:pageopacity="0.0" inkscape:pageshadow="2" inkscape:zoom="1.674" inkscape:cx="275.8" inkscape:cy="246.1" inkscape:document-units="px" inkscape:current-layer="layer2" showgrid="false" fit-margin-top="0" fit-margin-left="0" fit-margin-bottom="0" fit-margin-right="0" units="px" borderlayer="true" />
  <metadata id="metadata4226">
    <rdf:RDF>
      <cc:Work rdf:about="">
        <dc:format>image/svg+xml</dc:format>
        <dc:type rdf:resource="http://purl.org/dc/dcmitype/StillImage" />
        <dc:title></dc:title>
      </cc:Work>
    </rdf:RDF>
  </metadata>
  <g inkscape:groupmode="layer" id="layer2" inkscape:label="Base" transform="translate(33.71,-15.29)">
    <rect style="color:#000000;fill:#ffffff;fill-opacity:1;fill-rule:nonzero;stroke:none;stroke-width:2;marker:none;visibility:visible;display:inline;overflow:visible;enable-background:accumulate" id="rect4916" width="273" height="529.2" x="-33.71" y="15.29" />
    <g style="display:inline" id="g8740" transform="matrix(0.6702,0,0,0.6702,-166.5,-2737)">
      <path sodipodi:nodetypes="cc" inkscape:connector-curvature="0" id="path8471-6-6-72-2-3-8" d="m 436.3,4521 l 88.1,0" style="fill:none;stroke:#dba981;stroke-width:2.5;stroke-linecap:butt;stroke-linejoin:miter;stroke-miterlimit:4;stroke-opacity:1;stroke-dasharray:7.5, 2.5;stroke-dashoffset:0" />
      <path style="fill:none;stroke:#7dc832;stroke-width:3;stroke-linecap:round;stroke-linejoin:miter;stroke-miterlimit:4;stroke-opacity:1;stroke-dasharray:none;marker-start:url(#marker7359);marker-end:url(#marker7359)" d="m 525.1,4521 c 1,-26 -3.4,-76 -1.4,-199 c 1,-66 -31,-102 -39,-118" id="path7494-1-6-3-5-8-3-1-5-5-6-1-0" inkscape:connector-curvature="0" sodipodi:nodetypes="csc" />
      <path sodipodi:nodetypes="cc" inkscape:connector-curvature="0" id="path8471-6-6-72-2-3" d="m 305,4209 l 124,0" style="fill:none;stroke:#dba981;stroke-width:2;stroke-linecap:round;stroke-linejoin:miter;stroke-miterlimit:4;stroke-opacity:1;stroke-dasharray:6, 2;stroke-dashoffset:0" />
      <path style="fill:none;stroke:#dba981;stroke-width:5.3658;stroke-linecap:round;stroke-linejoin:miter;stroke-miterlimit:4;stroke-opacity:1;stroke-dasharray:none" d="m 429,4208 c 1,9 6,16 10,23 c 7,17 17,32 21,50 c 5,19 7,39 6,59 c -1,24 -7,48 -10,71 c -5,25 -10,50 -14,75 c -2,12 -6,25 -6,38 c 1,8 5,16 6,25 c 2,16 3,33 2,49 c -1,15 -4,29 -5,43 c -2,15 -3,31 -3,46 c 1,7 3,22 3,22 l 3,23 c 5,19 17,39 6,50 c -10,12 -14,23 -31,11 c -5,-6 -7,-18 -10,-27 c -2,-10 -2,-36 -6,-48 l -1,-15 c 0,0 0,-23 0,-34 c -3,-22 -12,-42 -14,-64 c -3,-18 1,-37 0,-55 c -1,-10 -3,-20 -3,-29 c -3,-33 -2,-66 -6,-99 c -3,-19 -10,-60 -10,-60 c 0,0 -6,38 -9,58 c -4,33 -8,67 -10,100 c -1,10 -3,19 -4,29 c -1,19 3,37 0,55 c -2,22 -11,43 -13,65 c -1,11 -1,33 -1,33 l -1,15 c -4,13 -5,41 -5,49 c -4,9 -5,21 -10,26 c -22,12 -22,1 -32,-10 c -10,-12 1,-31 6,-50 l 3,-24 c 0,0 2,-14 3,-22 c 0,-15 -1,-30 -3,-46 c -1,-14 -4,-28 -5,-42 c -1,-17 0,-34 2,-50 c 2,-8 5,-16 6,-25 c 0,-13 -4,-25 -6,-38 c -4,-25 -9,-49 -14,-74 c -3,-24 -9,-47 -10,-71 c 0,-20 1,-41 6,-60 c 4,-17 14,-33 21,-49 c 4,-8 9,-15 10,-23" id="path8426-8-4-0-4-0" inkscape:connector-curvature="0" />
    </g>
  </g>
  <g inkscape:label="Graphics" inkscape:groupmode="layer" id="layer1" transform="translate(52.1,-451.5)" style="display:inline" />
</svg>
