<?xml version="1.0" encoding="UTF-8" standalone="no"?>
<!-- Created with Inkscape (http://www.inkscape.org/) -->

<svg xmlns:dc="http://purl.org/dc/elements/1.1/" xmlns:cc="http://creativecommons.org/ns#" xmlns:rdf="http://www.w3.org/1999/02/22-rdf-syntax-ns#" xmlns:svg="http://www.w3.org/2000/svg" xmlns="http://www.w3.org/2000/svg" xmlns:sodipodi="http://sodipodi.sourceforge.net/DTD/sodipodi-0.dtd" xmlns:inkscape="http://www.inkscape.org/namespaces/inkscape" width="273" height="529.2" id="svg4221" version="1.1" inkscape:version="0.48.4 r9939" sodipodi:docname="P05.svg" inkscape:export-filename="/home/susan/Documents/Valentina/Measurements/Database/images/A1.png" inkscape:export-xdpi="96" inkscape:export-ydpi="96">
  <defs id="defs4223">
    <marker inkscape:stockid="Arrow2Mend" orient="auto" refY="0" refX="0" id="marker18919" style="overflow:visible">
      <path id="path18921" style="fill-rule:evenodd;stroke-width:0.625;stroke-linejoin:round" d="M 8.719,4.034 L -2.207,0.016 L 8.719,-4.002 c -1.746,2.372 -1.736,5.618 0,8.036 z" transform="scale(-0.6,-0.6)" inkscape:connector-curvature="0" />
    </marker>
    <marker inkscape:stockid="Arrow2Mend" orient="auto" refY="0" refX="0" id="marker5153" style="overflow:visible">
      <path id="path5155" style="fill-rule:evenodd;stroke-width:0.625;stroke-linejoin:round" d="M 8.719,4.034 L -2.207,0.016 L 8.719,-4.002 c -1.746,2.372 -1.736,5.618 0,8.036 z" transform="scale(-0.6,-0.6)" inkscape:connector-curvature="0" />
    </marker>
    <marker inkscape:stockid="Arrow2Mend" orient="auto" refY="0" refX="0" id="marker17459" style="overflow:visible">
      <path id="path17461" style="fill-rule:evenodd;stroke-width:0.625;stroke-linejoin:round" d="M 8.719,4.034 L -2.207,0.016 L 8.719,-4.002 c -1.746,2.372 -1.736,5.618 0,8.036 z" transform="scale(-0.6,-0.6)" inkscape:connector-curvature="0" />
    </marker>
    <marker inkscape:stockid="Arrow2Mend" orient="auto" refY="0" refX="0" id="marker8958" style="overflow:visible">
      <path id="path8960" style="fill-rule:evenodd;stroke-width:0.625;stroke-linejoin:round" d="M 8.719,4.034 L -2.207,0.016 L 8.719,-4.002 c -1.746,2.372 -1.736,5.618 0,8.036 z" transform="scale(-0.6,-0.6)" inkscape:connector-curvature="0" />
    </marker>
    <marker inkscape:stockid="Arrow2Mend" orient="auto" refY="0" refX="0" id="marker18919-6" style="overflow:visible">
      <path id="path18921-1" style="fill-rule:evenodd;stroke-width:0.625;stroke-linejoin:round" d="M 8.719,4.034 L -2.207,0.016 L 8.719,-4.002 c -1.746,2.372 -1.736,5.618 0,8.036 z" transform="scale(-0.6,-0.6)" inkscape:connector-curvature="0" />
    </marker>
    <marker inkscape:stockid="Arrow2Mend" orient="auto" refY="0" refX="0" id="marker18919-0" style="overflow:visible">
      <path id="path18921-2" style="fill-rule:evenodd;stroke-width:0.625;stroke-linejoin:round" d="M 8.719,4.034 L -2.207,0.016 L 8.719,-4.002 c -1.746,2.372 -1.736,5.618 0,8.036 z" transform="scale(-0.6,-0.6)" inkscape:connector-curvature="0" />
    </marker>
  </defs>
  <sodipodi:namedview id="base" pagecolor="#ffffff" bordercolor="#666666" borderopacity="1.0" inkscape:pageopacity="0.0" inkscape:pageshadow="2" inkscape:zoom="1.674" inkscape:cx="-5.677" inkscape:cy="264.6" inkscape:document-units="px" inkscape:current-layer="layer1" showgrid="false" fit-margin-top="0" fit-margin-left="0" fit-margin-bottom="0" fit-margin-right="0" units="px" borderlayer="true" />
  <metadata id="metadata4226">
    <rdf:RDF>
      <cc:Work rdf:about="">
        <dc:format>image/svg+xml</dc:format>
        <dc:type rdf:resource="http://purl.org/dc/dcmitype/StillImage" />
        <dc:title />
      </cc:Work>
    </rdf:RDF>
  </metadata>
  <g inkscape:groupmode="layer" id="layer2" inkscape:label="Base" transform="translate(67.17,-15.29)">
    <rect style="color:#000000;fill:#ffffff;fill-opacity:1;fill-rule:nonzero;stroke:none;stroke-width:2;marker:none;visibility:visible;display:inline;overflow:visible;enable-background:accumulate" id="rect4916" width="273" height="529.2" x="-67.17" y="15.29" />
  </g>
  <g inkscape:label="Graphics" inkscape:groupmode="layer" id="layer1" transform="translate(85.56,-451.5)" style="display:inline">
    <g style="display:inline" id="g14509-4-3" transform="translate(-440.9,-4715)">
      <path style="fill:none;stroke:#aaaaaa;stroke-width:3;stroke-linecap:butt;stroke-linejoin:miter;stroke-miterlimit:4;stroke-opacity:1;stroke-dasharray:6, 3;stroke-dashoffset:0" d="m 493.9,5324 c 16.9,0 31.1,1 28.9,8" id="path8645-3-34-5" inkscape:connector-curvature="0" sodipodi:nodetypes="cc" />
      <path sodipodi:nodetypes="cc" inkscape:connector-curvature="0" id="path3992-4-77-9-5-7-1-2-9-8-8-6-2-3-7-1-5-5" d="m 408.5,5434 l 164.7,0" style="fill:none;stroke:#dba981;stroke-width:1.4891;stroke-linecap:round;stroke-linejoin:miter;stroke-miterlimit:4;stroke-opacity:1;stroke-dasharray:4.4674, 1.4891;stroke-dashoffset:0" />
      <path sodipodi:nodetypes="cc" inkscape:connector-curvature="0" id="path8584-1-4-6-3-4-4-4-4-6-3-3-18" d="m 571.7,5434 c -8.7,-7 -16.5,-46 2.5,-83" style="fill:none;stroke:#dba981;stroke-width:1.582;stroke-linecap:round;stroke-linejoin:miter;stroke-miterlimit:4;stroke-opacity:1;stroke-dasharray:4.746, 1.582;stroke-dashoffset:0" />
      <path sodipodi:nodetypes="cc" inkscape:connector-curvature="0" id="path8584-6-7-8-0-3-1-3-3-1-8-0-8-3" d="m 409.1,5433 c 7.9,-14 13.6,-37 -2.2,-82" style="fill:none;stroke:#dba981;stroke-width:1.582;stroke-linecap:round;stroke-linejoin:miter;stroke-miterlimit:4;stroke-opacity:1;stroke-dasharray:4.746, 1.582;stroke-dashoffset:0" />
      <path sodipodi:nodetypes="cc" inkscape:connector-curvature="0" id="path3992-4-77-9-5-7-1-2-90-18-83-9-4" d="m 457.1,5328 c 12.7,19 48.8,20 63.4,3" style="fill:none;stroke:#dba981;stroke-width:1.582;stroke-linecap:round;stroke-linejoin:miter;stroke-miterlimit:4;stroke-opacity:1;stroke-dasharray:4.746, 1.582;stroke-dashoffset:0" />
      <path style="fill:none;stroke:#dba981;stroke-width:3.723;stroke-linecap:round;stroke-linejoin:miter;stroke-miterlimit:4;stroke-opacity:1;stroke-dasharray:none" d="m 421.3,5548 c -0.5,-25 -3.4,-40 -5.6,-61 c -1.9,-17 -1.2,-36 -6.7,-53 c -3.2,-8 -61.6,-34 -16.7,-76 c 33.7,-20 69.9,-15 69,-47 c 13.6,7 43.8,9 56.4,-2 c -0.2,41 48.5,31 75.6,53 c 29.4,29 11.3,49 -18.2,70 c -6.3,13 -8.7,40 -10.3,53 c -4,20 -8,45 -7.5,68" id="path14448-9-3" inkscape:connector-curvature="0" sodipodi:nodetypes="cccccccccc" />
      <path sodipodi:nodetypes="cc" inkscape:connector-curvature="0" id="path3992-4-77-9-5-7-1-2-9-8-8-6-2-3-1-6" d="m 420.8,5550 l 136.5,1" style="fill:none;stroke:#dba981;stroke-width:1.4891;stroke-linecap:round;stroke-linejoin:miter;stroke-miterlimit:4;stroke-opacity:1;stroke-dasharray:4.4674, 1.4891;stroke-dashoffset:0" />
      <path style="fill:none;stroke:#000000;stroke-width:3;stroke-linecap:round;stroke-linejoin:round;stroke-miterlimit:4;stroke-opacity:1;stroke-dasharray:none;marker-start:url(#marker7359);marker-end:url(#marker7359)" d="m 523.1,5328 c 40.1,24 31.6,183 33.7,222" id="path7494-1-6-3-5-81-64-9-2-9-5-3-0-6-1-6-2-6" inkscape:connector-curvature="0" sodipodi:nodetypes="cc" />
    </g>
  </g>
</svg>
