<?xml version="1.0" encoding="UTF-8" standalone="no"?>
<!-- Created with Inkscape (http://www.inkscape.org/) -->

<svg xmlns:dc="http://purl.org/dc/elements/1.1/" xmlns:cc="http://creativecommons.org/ns#" xmlns:rdf="http://www.w3.org/1999/02/22-rdf-syntax-ns#" xmlns:svg="http://www.w3.org/2000/svg" xmlns="http://www.w3.org/2000/svg" xmlns:sodipodi="http://sodipodi.sourceforge.net/DTD/sodipodi-0.dtd" xmlns:inkscape="http://www.inkscape.org/namespaces/inkscape" width="273" height="529.2" id="svg4221" version="1.1" inkscape:version="0.48.4 r9939" sodipodi:docname="H01.svg" inkscape:export-filename="/home/susan/Documents/Valentina/Measurements/Database/images/A1.png" inkscape:export-xdpi="96" inkscape:export-ydpi="96">
  <defs id="defs4223">
    <marker inkscape:stockid="Arrow2Mend" orient="auto" refY="0" refX="0" id="marker18919" style="overflow:visible">
      <path id="path18921" style="fill-rule:evenodd;stroke-width:0.625;stroke-linejoin:round" d="M 8.719,4.034 L -2.207,0.016 L 8.719,-4.002 c -1.746,2.372 -1.736,5.618 0,8.036 z" transform="scale(-0.6,-0.6)" inkscape:connector-curvature="0" />
    </marker>
  </defs>
  <sodipodi:namedview id="base" pagecolor="#ffffff" bordercolor="#666666" borderopacity="1.0" inkscape:pageopacity="0.0" inkscape:pageshadow="2" inkscape:zoom="1.187" inkscape:cx="221.4" inkscape:cy="226.1" inkscape:document-units="px" inkscape:current-layer="layer2" showgrid="false" fit-margin-top="0" fit-margin-left="0" fit-margin-bottom="0" fit-margin-right="0" units="px" borderlayer="true" />
  <metadata id="metadata4226">
    <rdf:RDF>
      <cc:Work rdf:about="">
        <dc:format>image/svg+xml</dc:format>
        <dc:type rdf:resource="http://purl.org/dc/dcmitype/StillImage" />
        <dc:title />
      </cc:Work>
    </rdf:RDF>
  </metadata>
  <g inkscape:groupmode="layer" id="layer2" inkscape:label="Base" transform="translate(33.71,-15.29)">
    <rect style="color:#000000;fill:#ffffff;fill-opacity:1;fill-rule:nonzero;stroke:none;stroke-width:2;marker:none;visibility:visible;display:inline;overflow:visible;enable-background:accumulate" id="rect4916" width="273" height="529.2" x="-33.71" y="15.29" />
    <g transform="translate(-276.9,-2778)" style="display:inline" id="g16637">
      <path sodipodi:nodetypes="cc" inkscape:connector-curvature="0" id="path3992-4-77-9-5-7-1-28-2-5" d="m 296.8,3106 l 154.7,1" style="fill:none;stroke:#dba981;stroke-width:2;stroke-linecap:round;stroke-linejoin:miter;stroke-miterlimit:4;stroke-opacity:1;stroke-dasharray:6, 2;stroke-dashoffset:0" />
      <path style="fill:none;stroke:#dba981;stroke-width:2;stroke-linecap:round;stroke-linejoin:miter;stroke-miterlimit:4;stroke-opacity:1;stroke-dasharray:6, 2;stroke-dashoffset:0" d="m 289.5,3070 c 42,-2 18,-31 89,-32 c 66,0 49,32 82,32" id="path3992-4-77-9-5-7-1-4-5" inkscape:connector-curvature="0" sodipodi:nodetypes="csc" />
      <path style="opacity:0.3;fill:none;stroke:#000000;stroke-width:2;stroke-linecap:round;stroke-linejoin:miter;stroke-miterlimit:4;stroke-opacity:0;stroke-dasharray:6, 2;stroke-dashoffset:0" d="m 338.5,2967 c 3,9 24,12 38,12 c 11,-1 28,-3 33,-12" id="path3992-4-94-7-98-1-3-4-7-3" inkscape:connector-curvature="0" sodipodi:nodetypes="cac" />
      <path style="fill:none;stroke:#dba981;stroke-width:2;stroke-linecap:round;stroke-linejoin:miter;stroke-miterlimit:4;stroke-opacity:1;stroke-dasharray:6, 2;stroke-dashoffset:0" d="m 337.5,2967 c 12,12 69,13 73,4" id="path3992-4-77-9-5-7-1-4" inkscape:connector-curvature="0" sodipodi:nodetypes="cc" />
      <path style="fill:none;stroke:#dba981;stroke-width:5.4721;stroke-linecap:round;stroke-linejoin:miter;stroke-miterlimit:4;stroke-opacity:1;stroke-dasharray:none" d="m 461.5,3066 c -6,-2 -36,8 -4,-81" id="path8584-1-4-6-3-4-4-8" inkscape:connector-curvature="0" sodipodi:nodetypes="cc" />
      <path style="fill:none;stroke:#dba981;stroke-width:5.4721;stroke-linecap:round;stroke-linejoin:miter;stroke-miterlimit:4;stroke-opacity:1;stroke-dasharray:none" d="m 289.5,3065 c 5,-2 35,8 3,-81" id="path8584-6-7-8-0-3-1-3-0" inkscape:connector-curvature="0" sodipodi:nodetypes="cc" />
      <path sodipodi:nodetypes="cc" inkscape:connector-curvature="0" id="path8471-6-6-6-8-7-8-3-3-3" d="m 312.5,3180 l 126,0" style="fill:none;stroke:#dba981;stroke-width:2;stroke-linecap:round;stroke-linejoin:miter;stroke-miterlimit:4;stroke-opacity:1;stroke-dasharray:6, 2;stroke-dashoffset:0" />
      <path sodipodi:nodetypes="cccccccacsccccc" inkscape:connector-curvature="0" id="path11116-93" d="m 310.5,3181 c -5,-26 -7,-40 -11,-60 c -3,-14 -2,-30 -8,-44 c -10,-26 -25,-61 -8,-87 c 8,-11 33,-10 53,-21 c 4,-3 5,-10 6,-14 c 1,-5 -1,-16 -1,-16 c 0,0 22,7 34,7 c 11,0 32,-6 32,-6 c 0,0 -2,10 -1,15 c 1,6 3,12 6,14 c 20,12 45,10 53,22 c 21,30 3,61 -8,86 c -6,14 -6,30 -8,44 c -4,20 -8,36 -11,60" style="fill:none;stroke:#dba981;stroke-width:5.4721;stroke-linecap:round;stroke-linejoin:miter;stroke-miterlimit:4;stroke-opacity:1;stroke-dasharray:none" />
      <path style="fill:none;stroke:#dba981;stroke-width:2;stroke-linecap:round;stroke-linejoin:miter;stroke-miterlimit:4;stroke-opacity:1;stroke-dasharray:6, 2;stroke-dashoffset:0" d="m 294.5,3081 l 160,0" id="path3992-4-77-9-5-7-1-28-2" inkscape:connector-curvature="0" sodipodi:nodetypes="cc" />
      <path sodipodi:nodetypes="cc" inkscape:connector-curvature="0" id="path7494-1-6-3-5-81-64-9-2-9-5-3-0-6" d="m 458.5,2985 l -80,194" style="fill:none;stroke:#000000;stroke-width:3;stroke-linecap:round;stroke-linejoin:round;stroke-miterlimit:4;stroke-opacity:1;stroke-dasharray:none;marker-start:url(#marker7359);marker-end:url(#marker7359)" />
    </g>
  </g>
  <g inkscape:label="Graphics" inkscape:groupmode="layer" id="layer1" transform="translate(52.1,-451.5)" style="display:inline" />
</svg>
