<?xml version="1.0" encoding="UTF-8" standalone="no"?>
<!-- Created with Inkscape (http://www.inkscape.org/) -->

<svg xmlns:dc="http://purl.org/dc/elements/1.1/" xmlns:cc="http://creativecommons.org/ns#" xmlns:rdf="http://www.w3.org/1999/02/22-rdf-syntax-ns#" xmlns:svg="http://www.w3.org/2000/svg" xmlns="http://www.w3.org/2000/svg" xmlns:sodipodi="http://sodipodi.sourceforge.net/DTD/sodipodi-0.dtd" xmlns:inkscape="http://www.inkscape.org/namespaces/inkscape" width="273" height="529.2" id="svg4221" version="1.1" inkscape:version="0.48.4 r9939" sodipodi:docname="shoulder_center_to_highbust_b.svg" inkscape:export-filename="/home/susan/Documents/Valentina/Measurements/Database/images/A1.png" inkscape:export-xdpi="96" inkscape:export-ydpi="96">
  <defs id="defs4223" />
  <sodipodi:namedview id="base" pagecolor="#ffffff" bordercolor="#666666" borderopacity="1.0" inkscape:pageopacity="0.0" inkscape:pageshadow="2" inkscape:zoom="1.572" inkscape:cx="-62.36" inkscape:cy="258.4" inkscape:document-units="px" inkscape:current-layer="layer1" showgrid="false" fit-margin-top="0" fit-margin-left="0" fit-margin-bottom="0" fit-margin-right="0" units="px" borderlayer="true" />
  <metadata id="metadata4226">
    <rdf:RDF>
      <cc:Work rdf:about="">
        <dc:format>image/svg+xml</dc:format>
        <dc:type rdf:resource="http://purl.org/dc/dcmitype/StillImage" />
        <dc:title />
      </cc:Work>
    </rdf:RDF>
  </metadata>
  <g inkscape:label="Layer 1" inkscape:groupmode="layer" id="layer1" transform="translate(30.86,-430.5)">
    <rect style="color:#000000;fill:#ffffff;fill-opacity:1;fill-rule:nonzero;stroke:none;stroke-width:2;marker:none;visibility:visible;display:inline;overflow:visible;enable-background:accumulate" id="rect4916" width="273" height="529.2" x="-45.27" y="430.5" />
    <g style="display:inline" id="g9425" transform="translate(-1168,-1202)">
      <path sodipodi:nodetypes="cc" inkscape:connector-curvature="0" id="path8471-6-6-6-8-7-8-3-3-9-3-9-1-3-3-4-6-5-0" d="m 1176,1947 l 164,0" style="fill:none;stroke:#dba981;stroke-width:2;stroke-linecap:round;stroke-linejoin:miter;stroke-miterlimit:4;stroke-opacity:1;stroke-dasharray:6, 2;stroke-dashoffset:0" />
      <path sodipodi:nodetypes="cc" inkscape:connector-curvature="0" id="path8471-6-6-6-8-7-8-3-3-9-3-9-1-0-2-9-3-0-4" d="m 1170,1908 l 177,0" style="fill:none;stroke:#dba981;stroke-width:2;stroke-linecap:round;stroke-linejoin:miter;stroke-miterlimit:4;stroke-opacity:1;stroke-dasharray:6, 2;stroke-dashoffset:0" />
      <path style="fill:none;stroke:#dba981;stroke-width:2;stroke-linecap:round;stroke-linejoin:miter;stroke-miterlimit:4;stroke-opacity:1;stroke-dasharray:6, 2;stroke-dashoffset:0" d="m 1222,1806 c 15,-7 58,-8 73,1" id="path3992-4-77-9-5-7-1-0-3-9-9-0-7-8-2" inkscape:connector-curvature="0" sodipodi:nodetypes="cc" />
      <path style="fill:none;stroke:#dba981;stroke-width:5.5698;stroke-linecap:round;stroke-linejoin:miter;stroke-miterlimit:4;stroke-opacity:1;stroke-dasharray:none" d="m 1348,1908 c -20,-25 -10,-51 0,-79" id="path8584-0-8-6-3-5-9-1-8-8-0-5" inkscape:connector-curvature="0" sodipodi:nodetypes="cc" />
      <path style="fill:none;stroke:#dba981;stroke-width:5.5698;stroke-linecap:round;stroke-linejoin:miter;stroke-miterlimit:4;stroke-opacity:1;stroke-dasharray:none" d="m 1170,1908 c 17,-23 14,-46 -2,-80" id="path8584-6-5-3-6-1-2-7-3-1-8-7-6" inkscape:connector-curvature="0" sodipodi:nodetypes="cc" />
      <path style="fill:none;stroke:#dba981;stroke-width:5.5698;stroke-linecap:round;stroke-linejoin:miter;stroke-miterlimit:4;stroke-opacity:1;stroke-dasharray:none" d="m 1192,2021 c -4,-22 -7,-39 -12,-60 c -3,-14 -2,-30 -7,-44 c -12,-25 -26,-61 -9,-86 c 9,-11 35,-10 55,-22 c 9,-7 7,-19 6,-29 c 28,-9 38,-10 67,0 c -1,10 -2,24 6,30 c 20,11 46,10 55,21 c 22,30 2,61 -9,87 c -5,13 -5,29 -8,43 c -4,21 -8,39 -12,59" id="path11142-0-5-6-7-5-6-6" inkscape:connector-curvature="0" sodipodi:nodetypes="cccccccccccc" />
      <path sodipodi:nodetypes="cc" inkscape:connector-curvature="0" id="path8471-6-6-6-8-7-8-3-3-9-1-2-5-4-2-0-8" d="m 1194,2020 l 130,0" style="fill:none;stroke:#dba981;stroke-width:2;stroke-linecap:round;stroke-linejoin:miter;stroke-miterlimit:4;stroke-opacity:1;stroke-dasharray:6, 2;stroke-dashoffset:0" />
      <path style="fill:none;stroke:#dba981;stroke-width:2;stroke-linecap:round;stroke-linejoin:miter;stroke-miterlimit:4;stroke-opacity:1;stroke-dasharray:6, 2;stroke-dashoffset:0" d="m 1176,1923 l 164,0" id="path8471-6-6-6-8-7-8-3-3-9-3-9-1-5-9-7-0-5" inkscape:connector-curvature="0" sodipodi:nodetypes="cc" />
      <path style="fill:none;stroke:#000000;stroke-width:3;stroke-linecap:round;stroke-linejoin:round;stroke-miterlimit:4;stroke-opacity:1;stroke-dasharray:none;marker-start:url(#marker7359);marker-end:url(#marker7359)" d="m 1308,1909 l 14,-92" id="path7494-1-6-3-5-81-64-9-2-0-5-7-3-2-4-0-9-7-9-1" inkscape:connector-curvature="0" sodipodi:nodetypes="cc" />
    </g>
    <path sodipodi:nodetypes="cc" inkscape:connector-curvature="0" id="path8279-8" d="m 134.6,671.9 l 19,17" style="fill:none;stroke:#000000;stroke-width:1.0264;stroke-linecap:round;stroke-linejoin:round;stroke-miterlimit:4;stroke-opacity:1;stroke-dasharray:none" />
    <path sodipodi:nodetypes="cc" inkscape:connector-curvature="0" id="path8279-3-2" d="m 153.6,671.9 l -19,17" style="fill:none;stroke:#000000;stroke-width:1.0264;stroke-linecap:round;stroke-linejoin:round;stroke-miterlimit:4;stroke-opacity:1;stroke-dasharray:none" />
  </g>
</svg>
