<?xml version="1.0" encoding="UTF-8" standalone="no"?>
<!-- Created with Inkscape (http://www.inkscape.org/) -->

<svg xmlns:dc="http://purl.org/dc/elements/1.1/" xmlns:cc="http://creativecommons.org/ns#" xmlns:rdf="http://www.w3.org/1999/02/22-rdf-syntax-ns#" xmlns:svg="http://www.w3.org/2000/svg" xmlns="http://www.w3.org/2000/svg" xmlns:sodipodi="http://sodipodi.sourceforge.net/DTD/sodipodi-0.dtd" xmlns:inkscape="http://www.inkscape.org/namespaces/inkscape" width="273" height="529.2" id="svg4221" version="1.1" inkscape:version="0.48.4 r9939" sodipodi:docname="O04.svg" inkscape:export-filename="/home/susan/Documents/Valentina/Measurements/Database/images/A1.png" inkscape:export-xdpi="96" inkscape:export-ydpi="96">
  <defs id="defs4223">
    <marker inkscape:stockid="Arrow2Mend" orient="auto" refY="0" refX="0" id="marker18919" style="overflow:visible">
      <path id="path18921" style="fill-rule:evenodd;stroke-width:0.625;stroke-linejoin:round" d="M 8.719,4.034 L -2.207,0.016 L 8.719,-4.002 c -1.746,2.372 -1.736,5.618 0,8.036 z" transform="scale(-0.6,-0.6)" inkscape:connector-curvature="0" />
    </marker>
    <marker inkscape:stockid="Arrow2Mend" orient="auto" refY="0" refX="0" id="marker5153" style="overflow:visible">
      <path id="path5155" style="fill-rule:evenodd;stroke-width:0.625;stroke-linejoin:round" d="M 8.719,4.034 L -2.207,0.016 L 8.719,-4.002 c -1.746,2.372 -1.736,5.618 0,8.036 z" transform="scale(-0.6,-0.6)" inkscape:connector-curvature="0" />
    </marker>
    <marker inkscape:stockid="Arrow2Mend" orient="auto" refY="0" refX="0" id="marker17459" style="overflow:visible">
      <path id="path17461" style="fill-rule:evenodd;stroke-width:0.625;stroke-linejoin:round" d="M 8.719,4.034 L -2.207,0.016 L 8.719,-4.002 c -1.746,2.372 -1.736,5.618 0,8.036 z" transform="scale(-0.6,-0.6)" inkscape:connector-curvature="0" />
    </marker>
    <marker inkscape:stockid="Arrow2Mend" orient="auto" refY="0" refX="0" id="marker8958" style="overflow:visible">
      <path id="path8960" style="fill-rule:evenodd;stroke-width:0.625;stroke-linejoin:round" d="M 8.719,4.034 L -2.207,0.016 L 8.719,-4.002 c -1.746,2.372 -1.736,5.618 0,8.036 z" transform="scale(-0.6,-0.6)" inkscape:connector-curvature="0" />
    </marker>
    <marker inkscape:stockid="Arrow2Mend" orient="auto" refY="0" refX="0" id="marker18919-6" style="overflow:visible">
      <path id="path18921-1" style="fill-rule:evenodd;stroke-width:0.625;stroke-linejoin:round" d="M 8.719,4.034 L -2.207,0.016 L 8.719,-4.002 c -1.746,2.372 -1.736,5.618 0,8.036 z" transform="scale(-0.6,-0.6)" inkscape:connector-curvature="0" />
    </marker>
  </defs>
  <sodipodi:namedview id="base" pagecolor="#ffffff" bordercolor="#666666" borderopacity="1.0" inkscape:pageopacity="0.0" inkscape:pageshadow="2" inkscape:zoom="1.674" inkscape:cx="-56.94" inkscape:cy="236.4" inkscape:document-units="px" inkscape:current-layer="layer1" showgrid="false" fit-margin-top="0" fit-margin-left="0" fit-margin-bottom="0" fit-margin-right="0" units="px" borderlayer="true" />
  <metadata id="metadata4226">
    <rdf:RDF>
      <cc:Work rdf:about="">
        <dc:format>image/svg+xml</dc:format>
        <dc:type rdf:resource="http://purl.org/dc/dcmitype/StillImage" />
        <dc:title />
      </cc:Work>
    </rdf:RDF>
  </metadata>
  <g inkscape:groupmode="layer" id="layer2" inkscape:label="Base" transform="translate(67.17,-15.29)">
    <rect style="color:#000000;fill:#ffffff;fill-opacity:1;fill-rule:nonzero;stroke:none;stroke-width:2;marker:none;visibility:visible;display:inline;overflow:visible;enable-background:accumulate" id="rect4916" width="273" height="529.2" x="-67.17" y="15.29" />
  </g>
  <g inkscape:label="Graphics" inkscape:groupmode="layer" id="layer1" transform="translate(85.56,-451.5)" style="display:inline">
    <g id="g11929" transform="translate(-3.091,15.92)">
      <path sodipodi:nodetypes="cc" inkscape:connector-curvature="0" id="path8584-1-4-6-3-4-4-4-4-6-0-1-4-7-6-5" d="m 136,673 c 2,-20 8,-57 0,-76" style="fill:none;stroke:#dba981;stroke-width:1.581;stroke-linecap:round;stroke-linejoin:miter;stroke-miterlimit:4;stroke-opacity:1;stroke-dasharray:4.743, 1.581;stroke-dashoffset:0" />
      <path sodipodi:nodetypes="cc" inkscape:connector-curvature="0" id="path8584-6-7-8-0-3-1-3-3-1-8-4-9-2-7-2" d="m -25,672 c -9,-60 -8,-63 -6,-80" style="fill:none;stroke:#dba981;stroke-width:1.581;stroke-linecap:round;stroke-linejoin:miter;stroke-miterlimit:4;stroke-opacity:1;stroke-dasharray:4.743, 1.581;stroke-dashoffset:0" />
      <path sodipodi:nodetypes="cc" inkscape:connector-curvature="0" id="path3992-4-77-9-5-7-1-2-90-18-5-4-9-8-0" d="m 19,569 c 14,-6 52,-7 68,0" style="fill:none;stroke:#dba981;stroke-width:1.581;stroke-linecap:round;stroke-linejoin:miter;stroke-miterlimit:4;stroke-opacity:1;stroke-dasharray:4.743, 1.581;stroke-dashoffset:0" />
      <path sodipodi:nodetypes="ccccccscccccccsac" inkscape:connector-curvature="0" id="path15418-3-7-3-6-3" d="m -19,843 c 0,-6 1,-22 2,-33 c 2,-11 4,-19 3,-23 c 0,-25 -3,-40 -6,-60 c -1,-18 -1,-37 -6,-53 c -3,-9 -70,-37 -17,-77 c 11,-9 29,-6 40,-14 c 12,-8 26,-11 27,-33 c 7,-2 18,-3 29,-3 c 11,0 20,2 27,4 c 0,6 6,17 12,22 c 17,16 55,20 63,31 c 40,44 -4,51 -18,71 c -7,13 -6,37 -8,49 c -3,20 -8,45 -7,68 c 0,7 2,14 3,22 c 2,9 2,21 3,28" style="fill:none;stroke:#dba981;stroke-width:3.7209;stroke-linecap:round;stroke-linejoin:miter;stroke-miterlimit:4;stroke-opacity:1;stroke-dasharray:none" />
      <path sodipodi:nodetypes="cc" inkscape:connector-curvature="0" id="path3992-4-77-9-5-7-1-2-9-8-8-6-2-3-2-0-4-6-0" d="m -14,789 l 136,1" style="fill:none;stroke:#dba981;stroke-width:1.4882;stroke-linecap:round;stroke-linejoin:miter;stroke-miterlimit:4;stroke-opacity:1;stroke-dasharray:4.4646, 1.4882;stroke-dashoffset:0" />
      <path style="opacity:0.3;fill:none;stroke:#000000;stroke-width:1.581;stroke-linecap:round;stroke-linejoin:miter;stroke-miterlimit:4;stroke-opacity:0;stroke-dasharray:4.743, 1.581;stroke-dashoffset:0" d="m 27,573 c 3,7 19,10 30,10 c 9,-1 22,-3 26,-10" id="path3992-4-94-7-98-1-3-4-7-3-5-3-43-4-4-8-6-4-3" inkscape:connector-curvature="0" sodipodi:nodetypes="cac" />
      <path style="fill:none;stroke:#dba981;stroke-width:1.4882;stroke-linecap:round;stroke-linejoin:miter;stroke-miterlimit:4;stroke-opacity:1;stroke-dasharray:4.4646, 1.4882;stroke-dashoffset:0" d="m -28,673 l 165,0" id="path3992-4-77-9-5-7-1-2-9-8-8-6-2-3-7-6-31-8-0-3" inkscape:connector-curvature="0" sodipodi:nodetypes="cc" />
      <path style="fill:none;stroke:#7dc832;stroke-width:3;stroke-linecap:round;stroke-linejoin:round;stroke-miterlimit:4;stroke-opacity:1;stroke-dasharray:none;marker-start:url(#marker7359);marker-end:url(#marker7359)" d="m -19,833 c 0,8 146,8 145,0" id="path7494-1-6-3-5-81-64-9-2-9-5-3-0-6-1-6-8-1-2" inkscape:connector-curvature="0" sodipodi:nodetypes="cc" />
    </g>
  </g>
</svg>
