<?xml version="1.0" encoding="UTF-8" standalone="no"?>
<!-- Created with Inkscape (http://www.inkscape.org/) -->

<svg xmlns:dc="http://purl.org/dc/elements/1.1/" xmlns:cc="http://creativecommons.org/ns#" xmlns:rdf="http://www.w3.org/1999/02/22-rdf-syntax-ns#" xmlns:svg="http://www.w3.org/2000/svg" xmlns="http://www.w3.org/2000/svg" xmlns:sodipodi="http://sodipodi.sourceforge.net/DTD/sodipodi-0.dtd" xmlns:inkscape="http://www.inkscape.org/namespaces/inkscape" width="273" height="529.2" id="svg4221" version="1.1" inkscape:version="0.48.4 r9939" sodipodi:docname="E25.svg" inkscape:export-filename="/home/susan/Documents/Valentina/Measurements/Database/images/A1.png" inkscape:export-xdpi="96" inkscape:export-ydpi="96">
  <defs id="defs4223" />
  <sodipodi:namedview id="base" pagecolor="#ffffff" bordercolor="#666666" borderopacity="1.0" inkscape:pageopacity="0.0" inkscape:pageshadow="2" inkscape:zoom="3.125" inkscape:cx="255.4" inkscape:cy="263.1" inkscape:document-units="px" inkscape:current-layer="layer1" showgrid="false" fit-margin-top="0" fit-margin-left="0" fit-margin-bottom="0" fit-margin-right="0" units="px" borderlayer="true" />
  <metadata id="metadata4226">
    <rdf:RDF>
      <cc:Work rdf:about="">
        <dc:format>image/svg+xml</dc:format>
        <dc:type rdf:resource="http://purl.org/dc/dcmitype/StillImage" />
        <dc:title />
      </cc:Work>
    </rdf:RDF>
  </metadata>
  <g inkscape:label="Layer 1" inkscape:groupmode="layer" id="layer1" transform="translate(45.27,-430.5)">
    <rect style="color:#000000;fill:#ffffff;fill-opacity:1;fill-rule:nonzero;stroke:none;stroke-width:2;marker:none;visibility:visible;display:inline;overflow:visible;enable-background:accumulate" id="rect4916" width="273" height="529.2" x="-45.27" y="430.5" />
    <g id="g14640" style="stroke-linecap:round;display:inline" transform="translate(-848.7,-1159)">
      <g transform="translate(-3.073,81.42)" id="g5169" style="stroke-linecap:round">
        <path style="fill:none;stroke:#dba981;stroke-width:5;stroke-linecap:round;stroke-linejoin:round;stroke-miterlimit:4;stroke-opacity:1;stroke-dasharray:none" d="m 1007,1675 c 7,26 27,52 31,76 c 6,39 -5,102 -7,120" id="path16673" inkscape:connector-curvature="0" />
        <path style="fill:none;stroke:#dba981;stroke-width:2;stroke-linecap:round;stroke-linejoin:round;stroke-miterlimit:4;stroke-opacity:1;stroke-dasharray:6, 2;stroke-dashoffset:0" d="m 1031,1871 l -79.3,0" id="path16671" inkscape:connector-curvature="0" />
        <path style="fill:none;stroke:#dba981;stroke-width:5;stroke-linecap:round;stroke-linejoin:round;stroke-miterlimit:4;stroke-opacity:1;stroke-dasharray:none" d="m 951.7,1871 l -6.8,-51 l -7.2,51" id="path16669" inkscape:connector-curvature="0" />
        <path style="fill:none;stroke:#dba981;stroke-width:2;stroke-linecap:round;stroke-linejoin:round;stroke-miterlimit:4;stroke-opacity:1;stroke-dasharray:6, 2;stroke-dashoffset:0" d="m 937.7,1871 l -82.2,0" id="path16667" inkscape:connector-curvature="0" />
        <path style="fill:none;stroke:#dba981;stroke-width:5;stroke-linecap:round;stroke-linejoin:round;stroke-miterlimit:4;stroke-opacity:1;stroke-dasharray:none" d="m 855.5,1871 c -1.2,-2 -13.9,-80 -7.4,-119 c 2.6,-26 29.8,-56 32.6,-77" id="path22054" inkscape:connector-curvature="0" />
        <g id="g22035" transform="translate(0.3401,-246.8)" style="stroke-linecap:round">
          <path style="fill:none;stroke:#dba981;stroke-width:2;stroke-linecap:butt;stroke-linejoin:miter;stroke-miterlimit:4;stroke-opacity:1;stroke-dasharray:6, 2;stroke-dashoffset:0" d="m 847.9,2045 l 193.1,0" id="path8471-0-07-6-8-0-2" inkscape:connector-curvature="0" sodipodi:nodetypes="cc" />
          <path style="fill:none;stroke:#dba981;stroke-width:2;stroke-linecap:butt;stroke-linejoin:miter;stroke-miterlimit:4;stroke-opacity:1;stroke-dasharray:6, 2;stroke-dashoffset:0" d="m 860.8,1967 l 165.2,1" id="path8471-6-8-4-5-5-6-3" inkscape:connector-curvature="0" sodipodi:nodetypes="cc" />
          <path style="fill:none;stroke:#dba981;stroke-width:2;stroke-linecap:butt;stroke-linejoin:miter;stroke-miterlimit:4;stroke-opacity:1;stroke-dasharray:6, 2;stroke-dashoffset:0" d="m 880.8,1922 l 126.2,0" id="path8471-6-6-6-8-7-8-3-1" inkscape:connector-curvature="0" sodipodi:nodetypes="cc" />
          <path sodipodi:nodetypes="cc" inkscape:connector-curvature="0" id="path7494-1-6-3-5-81-64-9-1-8-9-2" d="m 943.6,1967 l 0,-45" style="fill:none;stroke:#000000;stroke-width:3;stroke-linecap:round;stroke-linejoin:miter;stroke-miterlimit:4;stroke-opacity:1;stroke-dasharray:none;marker-start:url(#marker7359);marker-end:url(#marker7359)" />
        </g>
      </g>
    </g>
  </g>
</svg>
