<?xml version="1.0" encoding="UTF-8" standalone="no"?>
<!-- Created with Inkscape (http://www.inkscape.org/) -->

<svg xmlns:dc="http://purl.org/dc/elements/1.1/" xmlns:cc="http://creativecommons.org/ns#" xmlns:rdf="http://www.w3.org/1999/02/22-rdf-syntax-ns#" xmlns:svg="http://www.w3.org/2000/svg" xmlns="http://www.w3.org/2000/svg" xmlns:sodipodi="http://sodipodi.sourceforge.net/DTD/sodipodi-0.dtd" xmlns:inkscape="http://www.inkscape.org/namespaces/inkscape" width="405" height="531.2" id="svg10623" version="1.1" inkscape:version="0.48.4 r9939" sodipodi:docname="B01.svg">
  <defs id="defs10625">
    <marker inkscape:stockid="Arrow2Mend" orient="auto" refY="0" refX="0" id="Arrow2Mend" style="overflow:visible">
      <path id="path8911" style="fill-rule:evenodd;stroke-width:0.625;stroke-linejoin:round" d="M 8.719,4.034 L -2.207,0.016 L 8.719,-4.002 c -1.746,2.372 -1.736,5.618 0,8.036 z" transform="scale(-0.6,-0.6)" inkscape:connector-curvature="0" />
    </marker>
    <marker inkscape:stockid="Arrow2Mend" orient="auto" refY="0" refX="0" id="marker6045" style="overflow:visible">
      <path id="path6047" style="fill-rule:evenodd;stroke-width:0.625;stroke-linejoin:round" d="M 8.719,4.034 L -2.207,0.016 L 8.719,-4.002 c -1.746,2.372 -1.736,5.618 0,8.036 z" transform="scale(-0.6,-0.6)" inkscape:connector-curvature="0" />
    </marker>
  </defs>
  <sodipodi:namedview id="base" pagecolor="#ffffff" bordercolor="#666666" borderopacity="1.0" inkscape:pageopacity="0.0" inkscape:pageshadow="2" inkscape:zoom="1.183" inkscape:cx="-27.63" inkscape:cy="278.3" inkscape:document-units="px" inkscape:current-layer="layer3" showgrid="false" fit-margin-top="0" fit-margin-left="0" fit-margin-right="0" fit-margin-bottom="0" showguides="true" inkscape:guide-bbox="true" borderlayer="true" />
  <metadata id="metadata10628">
    <rdf:RDF>
      <cc:Work rdf:about="">
        <dc:format>image/svg+xml</dc:format>
        <dc:type rdf:resource="http://purl.org/dc/dcmitype/StillImage" />
        <dc:title />
      </cc:Work>
    </rdf:RDF>
  </metadata>
  <g inkscape:label="Base" inkscape:groupmode="layer" id="layer1" transform="translate(157.9,322.2)">
    <rect style="color:#000000;fill:#ffffff;fill-opacity:1;fill-rule:nonzero;stroke:none;stroke-width:3;marker:none;visibility:visible;display:inline;overflow:visible;enable-background:accumulate" id="rect3088" width="405" height="531.2" x="-165.2" y="-322.2" />
  </g>
  <g inkscape:groupmode="layer" id="layer3" inkscape:label="Graphics">
    <g id="g7098-3" transform="matrix(0.9503,0,0,0.9503,-781.2,-46.83)" style="stroke-linecap:round;display:inline">
      <text sodipodi:linespacing="125%" id="text7318-9" y="163.88844" x="654.50916" style="font-size:18px;font-style:normal;font-variant:normal;font-weight:normal;font-stretch:normal;text-align:start;line-height:125%;letter-spacing:0px;word-spacing:0px;writing-mode:lr-tb;text-anchor:start;fill:#000000;fill-opacity:1;stroke:none;font-family:Standard Symbols L;-inkscape-font-specification:Standard Symbols L" xml:space="preserve"><tspan style="font-size:24px" y="163.88844" x="654.50916" sodipodi:role="line" id="tspan9819-6" /></text>
    </g>
    <path sodipodi:nodetypes="ccccccccccccccacccccccc" inkscape:connector-curvature="0" d="m 300,371 c 7,41 -5,107.1 -7,126 l -83,0 l -8,-63 l -7,63 l -87,0 c -1,-2.1 -15,-84 -7,-124.9 c 3,-27.3 31,-58.8 36,-80.9 c 3,-21 -7,-38.8 -12,-59.8 c -3,-14.7 -2,-30.5 -7,-44.1 c -12,-25.2 -27,-60.9 -9,-86.1 c 9,-11.62 35,-10.52 55,-22.12 c 4,-2.1 6,-8.4 7,-12.6 c 0,-6.3 -1,-16.8 -1,-16.8 c 0,0 22,-7.32 34,-7.32 c 11,0 33,7.32 33,7.32 c 0,0 -2,11.6 -1,16.8 c 1,4.2 2,10.5 7,13.7 c 20,10.5 46,9.4 55,21.02 c 22,29.4 2,60.9 -9,87.1 c -5,12.6 -5,28.4 -9,43.1 c -3,21 -13,38.8 -11,58.8 c 6,28.3 27,55.6 31,80.8 z" style="fill:none;stroke:#dba981;stroke-width:5.25;stroke-linecap:round;stroke-linejoin:round;stroke-miterlimit:4;stroke-opacity:1;stroke-dasharray:none" id="path22054-4-0" />
    <path sodipodi:nodetypes="cc" inkscape:connector-curvature="0" id="path8584-0-8-6-3-0" d="m 293,178 c -21,-21 -15,-43 0,-79.02" style="fill:none;stroke:#dba981;stroke-width:5.5698;stroke-linecap:round;stroke-linejoin:miter;stroke-miterlimit:4;stroke-opacity:1;stroke-dasharray:none" />
    <path sodipodi:nodetypes="cc" inkscape:connector-curvature="0" id="path8584-6-5-3-6-1-4" d="m 114,176 c 23,-20 10,-56 -2,-79.02" style="fill:none;stroke:#dba981;stroke-width:5.5698;stroke-linecap:round;stroke-linejoin:miter;stroke-miterlimit:4;stroke-opacity:1;stroke-dasharray:none" />
    <path sodipodi:nodetypes="cc" inkscape:connector-curvature="0" id="path3992-4-77-9-5-7-1-0-9" d="m 167,75.98 c 15,-7 58,-8 73,1" style="fill:none;stroke:#dba981;stroke-width:2;stroke-linecap:round;stroke-linejoin:miter;stroke-miterlimit:4;stroke-opacity:1;stroke-dasharray:6, 2;stroke-dashoffset:0" />
    <g id="g16328" transform="translate(-423.1,-2017)">
      <path sodipodi:nodetypes="cc" inkscape:connector-curvature="0" id="path7494-1-6-3-5-81-64-9-2-0-5-7-5" d="m 668.2,2167 l -180,0" style="fill:none;stroke:#000000;stroke-width:3;stroke-linecap:round;stroke-linejoin:miter;stroke-miterlimit:4;stroke-opacity:1;stroke-dasharray:none;marker-start:url(#marker7359);marker-end:url(#marker7359)" />
    </g>
    <path style="fill:none;stroke:#dba981;stroke-width:2;stroke-linecap:butt;stroke-linejoin:miter;stroke-miterlimit:4;stroke-opacity:1;stroke-dasharray:6, 2;stroke-dashoffset:0" d="M 64,151.1 L 110,96.88" id="path3833-4-0-8-2-6-6-9-6-7-1-9-9-4-7-9-6" inkscape:connector-curvature="0" sodipodi:nodetypes="cc" />
    <path style="fill:none;stroke:#dba981;stroke-width:2;stroke-linecap:butt;stroke-linejoin:miter;stroke-miterlimit:4;stroke-opacity:1;stroke-dasharray:6, 2;stroke-dashoffset:0" d="M 248,149.2 L 291,97.08" id="path3833-4-0-8-2-6-6-9-6-7-1-9-9-4-7-9-6-9" inkscape:connector-curvature="0" sodipodi:nodetypes="cc" />
    <path style="fill:none;stroke:#dba981;stroke-width:5.25;stroke-linecap:round;stroke-linejoin:round;stroke-miterlimit:4;stroke-opacity:1;stroke-dasharray:none" d="m 185,444.5 c 5,-2.1 10,-3.1 17,-10.5 c 3,3.2 5,7.4 12,9.5" id="path6088-7" inkscape:connector-curvature="0" sodipodi:nodetypes="ccc" />
    <path style="fill:none;stroke:#dba981;stroke-width:2;stroke-linecap:round;stroke-linejoin:miter;stroke-miterlimit:4;stroke-opacity:1;stroke-dasharray:6, 2;stroke-dashoffset:0;display:inline" d="m 120,195.7 l 165,-0.1" id="path3992-4-77-9-5-7-1-0-9-7" inkscape:connector-curvature="0" sodipodi:nodetypes="cc" />
    <path style="fill:none;stroke:#dba981;stroke-width:2;stroke-linecap:round;stroke-linejoin:miter;stroke-miterlimit:4;stroke-opacity:1;stroke-dasharray:6, 2;stroke-dashoffset:0;display:inline" d="m 138,289 l 128,-0.1" id="path3992-4-77-9-5-7-1-0-9-7-7" inkscape:connector-curvature="0" sodipodi:nodetypes="cc" />
    <path style="fill:none;stroke:#dba981;stroke-width:2;stroke-linecap:round;stroke-linejoin:miter;stroke-miterlimit:4;stroke-opacity:1;stroke-dasharray:6, 2;stroke-dashoffset:0;display:inline" d="m 98,380.9 l 201,0.5" id="path3992-4-77-9-5-7-1-0-9-7-7-6" inkscape:connector-curvature="0" sodipodi:nodetypes="cc" />
  </g>
</svg>
